<?xml version="1.0" encoding="UTF-8" standalone="no"?>
<!--
  #%L
  xplan-webservices-workspaces - Modul zur Gruppierung aller Workspaces
  %%
  Copyright (C) 2008 - 2025 Freie und Hansestadt Hamburg, developed by lat/lon gesellschaft für raumbezogene Informationssysteme mbH
  %%
  This program is free software: you can redistribute it and/or modify
  it under the terms of the GNU Affero General Public License as published by
  the Free Software Foundation, either version 3 of the License, or
  (at your option) any later version.
  
  This program is distributed in the hope that it will be useful,
  but WITHOUT ANY WARRANTY; without even the implied warranty of
  MERCHANTABILITY or FITNESS FOR A PARTICULAR PURPOSE.  See the
  GNU General Public License for more details.
  
  You should have received a copy of the GNU Affero General Public License
  along with this program.  If not, see <http://www.gnu.org/licenses/>.
  #L%
  -->

<!-- Created with Inkscape (http://www.inkscape.org/) -->

<svg
   version="1.0"
   width="100%"
   height="100%"
   viewBox="-1.5 -1.5 100 100"
   id="svg2"
   xmlns="http://www.w3.org/2000/svg"
   xmlns:svg="http://www.w3.org/2000/svg">
  <defs
     id="defs4">
    <style
       type="text/css"
       id="style6" />
  </defs>
  <g
     id="use15"
     transform="matrix(44.274854,0,0,44.274854,48.481781,48.481781)">
    <path
       id="circle12"
       style="fill:none;stroke:#000000;stroke-width:0.25"
       d="M 1,0 A 1,1 0 0 1 0,1 1,1 0 0 1 -1,0 1,1 0 0 1 0,-1 1,1 0 0 1 1,0 Z" />
    <path
       d="M -1,0 H 1"
       id="path14"
       style="fill:none;stroke:#000000;stroke-width:0.25" />
    <path
       d="M 0,-1 V 1"
       id="path16"
       style="fill:none;stroke:#000000;stroke-width:0.25" />
  </g>
</svg>
